<svg xmlns="http://www.w3.org/2000/svg" width="39.38" height="50.12" viewBox="0 0 39.38 50.12">
  <defs>
    <style>
      .cls-1 {
        fill: #0a0a0a;
      }
    </style>
  </defs>
  <path id="Path_4" data-name="Path 4" class="cls-1" d="M8,5V55.12L47.38,30.06Z" transform="translate(-8 -5)"/>
</svg>
