<svg xmlns="http://www.w3.org/2000/svg" xmlns:xlink="http://www.w3.org/1999/xlink" width="209" height="115" viewBox="0 0 209 115">
  <defs>
    <filter id="TriffStop" x="0" y="0" width="209" height="115" filterUnits="userSpaceOnUse">
      <feOffset dx="20" dy="20" input="SourceAlpha"/>
      <feGaussianBlur stdDeviation="10" result="blur"/>
      <feFlood flood-color="#f3f3f3" flood-opacity="0.161"/>
      <feComposite operator="in" in2="blur"/>
      <feComposite in="SourceGraphic"/>
    </filter>
  </defs>
  <g transform="matrix(1, 0, 0, 1, 0, 0)" filter="url(#TriffStop)">
    <text id="TriffStop-2" data-name="TriffStop" transform="translate(11 54)" fill="snow" stroke="#241e1e" stroke-width="1" font-size="40" font-family="SegoeUI, Segoe UI"><tspan x="0" y="0">TriffStop</tspan></text>
  </g>
</svg>
