<svg xmlns="http://www.w3.org/2000/svg" width="280" height="280" viewBox="0 0 280 280">
  <g id="User" transform="translate(-319 -122)">
    <circle id="Ellipse_32" data-name="Ellipse 32" cx="140" cy="140" r="140" transform="translate(319 122)" fill="#f1f9ff"/>
    <path id="Union_7" data-name="Union 7" d="M0,494V476.5c0-19.254,31.5-35,70-35s70,15.75,70,35V494ZM35,389a35,35,0,1,1,35,35A35,35,0,0,1,35,389Z" transform="translate(389 -162)" fill="#7fc4fd"/>
  </g>
</svg>
